<svg xmlns="http://www.w3.org/2000/svg" viewBox="0 0 213 213" width="213" height="213">
	<defs>
		<clipPath clipPathUnits="userSpaceOnUse" id="cp1">
			<path d="M38.22,185.44h929.17v-161.2h-929.17z" />
		</clipPath>
		<clipPath clipPathUnits="userSpaceOnUse" id="cp2">
			<path d="M38.22,185.44h929.17v-161.2h-929.17z" />
		</clipPath>
		<clipPath clipPathUnits="userSpaceOnUse" id="cp3">
			<path d="M38.22,185.44h929.17v-161.2h-929.17z" />
		</clipPath>
		<clipPath clipPathUnits="userSpaceOnUse" id="cp4">
			<path d="M38.22,185.44h929.17v-161.2h-929.17z" />
		</clipPath>
	</defs>
	<style>
		tspan { white-space:pre }
		.shp0 { fill: #40beeb } 
		.shp1 { fill: #f982b9 } 
		.shp2 { fill: #3c60ab } 
		.shp3 { fill: #f14289 } 
		.shp4 { fill: #3c2f7c } 
	</style>
	<g >
		<g clip-path="url(#cp1)">
			<path class="shp0" d="M183.98 137.87C182.88 140.28 181.65 142.63 180.29 144.92C173.12 156.99 163 166.35 149.95 172.98C136.9 179.63 121.91 182.95 105.01 182.95L71.92 182.95L71.92 185.44L127.58 185.44C141.66 185.44 154.15 182.68 165.03 177.14C172.5 173.35 178.82 168.48 183.98 162.54L183.98 137.87ZM105.69 57.96L79.65 57.96L79.65 149.44L106.45 149.44L106.45 81.29L128.15 81.29C134.66 81.29 140.49 82.72 145.67 85.56C144.96 83.61 144.12 81.73 143.16 79.93C139.46 72.98 134.36 67.59 127.88 63.74C121.38 59.9 113.99 57.96 105.69 57.96Z" />
		</g>
		<path class="shp0" d="M796.05,38.71h-0.22v103.56h56.25v-0.74h-56.04z" />
		<g clip-path="url(#cp2)">
			<path class="shp1" d="M145.67 85.56C147.69 91.11 148.71 97.23 148.71 103.92C148.71 112.84 146.97 120.76 143.5 127.7C140.02 134.64 135.2 140.01 129.01 143.78C122.82 147.56 115.72 149.44 107.73 149.44L106.45 149.44L106.45 157.53L129.84 157.53C136.51 157.53 142.42 155.95 147.58 152.81C152.73 149.67 156.75 145.19 159.65 139.41C162.55 133.62 163.99 127.03 163.99 119.59C163.99 112.05 162.45 105.38 159.37 99.59C156.29 93.81 152.04 89.31 146.63 86.11C146.32 85.92 145.99 85.74 145.67 85.56ZM106.59 24.24L38.22 24.24L38.22 182.95L71.92 182.95L71.92 53.19L128.89 53.19C142.73 53.19 154.97 55.95 165.59 61.48C172.81 65.24 178.94 70.03 183.98 75.84L183.98 69C182.91 66.66 181.72 64.37 180.4 62.15C173.31 50.15 163.38 40.84 150.63 34.19C137.88 27.56 123.2 24.24 106.59 24.24Z" />
			<path class="shp2" d="M79.65 149.44L79.65 57.96L105.69 57.96C113.99 57.96 121.38 59.9 127.88 63.74C134.36 67.59 139.46 72.98 143.16 79.93C144.12 81.73 144.96 83.61 145.67 85.56C145.99 85.74 146.31 85.92 146.63 86.11C152.04 89.31 156.29 93.81 159.37 99.6C162.45 105.38 163.99 112.05 163.99 119.59C163.99 127.03 162.55 133.62 159.65 139.41C156.75 145.19 152.73 149.66 147.58 152.81C142.42 155.95 136.51 157.53 129.84 157.53L106.45 157.53L106.45 149.44L79.65 149.44ZM128.9 53.19L71.92 53.19L71.92 182.95L105.01 182.95C121.91 182.95 136.9 179.63 149.95 172.98C163 166.35 173.12 156.99 180.29 144.92C181.65 142.63 182.88 140.28 183.98 137.87L183.98 75.84C178.94 70.02 172.81 65.24 165.59 61.48C154.97 55.95 142.73 53.19 128.9 53.19Z" />
		</g>
		<g clip-path="url(#cp3)">
			<path class="shp2" d="M188.43,81.66c1.75,6.84 2.62,14.11 2.62,21.83c0,12.6 -2.36,24.06 -7.07,34.39v24.67c2.35,-2.71 4.46,-5.64 6.34,-8.79c5.91,-9.97 8.9,-21.34 8.96,-34.12v-0.81c-0.06,-12.79 -3.02,-24.13 -8.87,-34.04c-0.63,-1.07 -1.29,-2.11 -1.97,-3.13z" />
		</g>
		<g clip-path="url(#cp4)">
			<path class="shp3" d="M183.98,69v6.84c1.59,1.84 3.08,3.77 4.45,5.82c-1.12,-4.4 -2.61,-8.62 -4.45,-12.66z" />
			<path class="shp4" d="M183.98,75.84v62.03c4.71,-10.33 7.07,-21.79 7.07,-34.39c0,-7.71 -0.87,-14.99 -2.62,-21.82c-1.38,-2.04 -2.86,-3.98 -4.45,-5.82z" />
		</g>
	</g>
</svg>